{
    "skin_color_green"     :       {

        "navi_bg_color"             :"137A5A",
        "navi_tint_color"           :"FFFFFF",

        "tab_bg_color"              :"FFFFFF",
        "tab_nor_color"             :"7e8c8d",
        "tab_sel_color"             :"137A5A",
        
        "view_screen_color"         :"F6F6F9",
        "view_bg_color"             :"FFFFFF",
        "view_contentview_color"    :"137A5A",
        
        "text_titile_color"         :"FFFFFF",
        "text_head_color"           :"2F2F2F",
        
        "text_item_nor_color"       :"2F2F2F",
        "text_item_nor_sub_color"   :"555555",
        "text_item_sel_color"       :"137A5A",
        "text_item_sel_sub_color"   :"63D7A6",
        
        "view_kit_nor_color"        :"FFFFFF",
        "view_kit_sel_color"        :"137A5A",
        "view_kit_dis_color"        :"D2D2D2",
        
        "view_cus_headBg_color"     :"FFFFFF",
        "view_cus_bg_color"         :"EEFAF6",
        "view_quick_bg_color"       :"EEFAF6",
        
    },
    "skin_color_black"     :       {
        "navi_bg_color"             :"000000",
        "navi_tint_color"           :"FFFFFF",
        
        "tab_bg_color"              :"000000",
        "tab_nor_color"             :"FFFFFF",
        "tab_sel_color"             :"1B9DC9",
        
        "view_screen_color"         :"1F2035",
        "view_bg_color"             :"2A3261",
        "view_contentview_color"    :"292B2C",
        
        "text_titile_color"         :"FFFFFF",
        "text_head_color"           :"FFFFFF",
        
        "text_item_nor_color"       :"FFFFFF",
        "text_item_nor_sub_color"   :"D2D2D2",
        "text_item_sel_color"       :"1B9DC9",
        "text_item_sel_sub_color"   :"1B9DB9",
        
        "view_kit_nor_color"        :"EBEBEB",
        "view_kit_sel_color"        :"1B9DC9",
        "view_kit_dis_color"        :"D2D2D2",
        
        "view_cus_headBg_color"     :"2A3261",
        "view_cus_bg_color"         :"1F2035",
        "view_quick_bg_color"       :"1F2035",
    },
    "skin_color_pink"     :       {
        
        "navi_bg_color"             :"EA073F",
        "navi_tint_color"           :"FFFFFF",
        
        "tab_bg_color"              :"FFFFFF",
        "tab_nor_color"             :"7e8c8d",
        "tab_sel_color"             :"EA073F",
        
        "view_screen_color"         :"FFF0F5",
        "view_bg_color"             :"FFFFFF",
        "view_contentview_color"    :"FF3D82",
        
        "text_titile_color"         :"FFFFFF",
        "text_head_color"           :"2F2F2F",
        
        "text_item_nor_color"       :"2F2F2F",
        "text_item_nor_sub_color"   :"555555",
        "text_item_sel_color"       :"EA073F",
        "text_item_sel_sub_color"   :"DF868B",
        
        "view_kit_nor_color"        :"FFFFFF",
        "view_kit_sel_color"        :"EA073F",
        "view_kit_dis_color"        :"D2D2D2",
        
        "view_cus_headBg_color"     :"FFFFFF",
        "view_cus_bg_color"         :"FFF0F5",
        "view_quick_bg_color"       :"FFF0F5",
    },
    
    "skin_color_brown"     :       {
        "navi_bg_color"             :"A26B25",
        "navi_tint_color"           :"FFFFFF",
        
        "tab_bg_color"              :"FFFFFF",
        "tab_nor_color"             :"7e8c8d",
        "tab_sel_color"             :"A26B25",
        
        "view_screen_color"         :"FAF6F1",
        "view_bg_color"             :"FFFFFF",
        "view_contentview_color"    :"AE7E41",
        
        "text_titile_color"         :"FFFFFF",
        "text_head_color"           :"2F2F2F",
        
        "text_item_nor_color"       :"2F2F2F",
        "text_item_nor_sub_color"   :"555555",
        "text_item_sel_color"       :"A26B25",
        "text_item_sel_sub_color"   :"D2B798",
        
        "view_kit_nor_color"        :"FFFFFF",
        "view_kit_sel_color"        :"A26B25",
        "view_kit_dis_color"        :"D2D2D2",
        
        "view_cus_headBg_color"     :"FFFFFF",
        "view_cus_bg_color"         :"FAF6F1",
        "view_quick_bg_color"       :"FAF6F1",
    },
    
    "skin_color_blue"     :       {
        
        "navi_bg_color"             :"072C84",
        "navi_tint_color"           :"FFFFFF",
        
        "tab_bg_color"              :"FFFFFF",
        "tab_nor_color"             :"7e8c8d",
        "tab_sel_color"             :"072C84",
        
        "view_screen_color"         :"F1FAFF",
        "view_bg_color"             :"FFFFFF",
        "view_contentview_color"    :"345E92",
        
        "text_titile_color"         :"FFFFFF",
        "text_head_color"           :"2F2F2F",
        
        "text_item_nor_color"       :"2F2F2F",
        "text_item_nor_sub_color"   :"555555",
        "text_item_sel_color"       :"072C84",
        "text_item_sel_sub_color"   :"53B9FF",
        
        "view_kit_nor_color"        :"FFFFFF",
        "view_kit_sel_color"        :"072C84",
        "view_kit_dis_color"        :"D2D2D2",
        
        "view_cus_headBg_color"     :"FFFFFF",
        "view_cus_bg_color"         :"F1FAFF",
        "view_quick_bg_color"       :"F1FAFF",
    },
    "skin_color_white"     :       {
        
        "navi_bg_color"             :"FFFFFF",
        "navi_tint_color"           :"BF2429",
        
        "tab_bg_color"              :"FFFFFF",
        "tab_nor_color"             :"7e8c8d",
        "tab_sel_color"             :"BF2429",
        
        "view_screen_color"         :"EFEFF4",
        "view_bg_color"             :"FFFFFF",
        "view_contentview_color"    :"BF2429",
        
        "text_titile_color"         :"000000",
        "text_head_color"           :"000000",
        
        "text_item_nor_color"       :"2F2F2F",
        "text_item_nor_sub_color"   :"555555",
        "text_item_sel_color"       :"BF2429",
        "text_item_sel_sub_color"   :"53B9FF",
        
        "view_kit_nor_color"        :"FFFFFF",
        "view_kit_sel_color"        :"BF2429",
        "view_kit_dis_color"        :"D2D2D2",
        
        "view_cus_headBg_color"     :"FFFFFF",
        "view_cus_bg_color"         :"EFEFF4",
        "view_quick_bg_color"       :"EFEFF4",
    },
    "skin_color_gold"     :       {
        
        "navi_bg_color"             :"e8a82d",
        "navi_tint_color"           :"FFFFFF",
        
        "tab_bg_color"              :"e8a82d",
        "tab_nor_color"             :"FFFFFF",
        "tab_sel_color"             :"e8a82d",
        
        "view_screen_color"         :"FAF6F1",
        "view_bg_color"             :"FFFFFF",
        "view_contentview_color"    :"AE7E41",
        
        "text_titile_color"         :"FFFFFF",
        "text_head_color"           :"2F2F2F",
        
        "text_item_nor_color"       :"2F2F2F",
        "text_item_nor_sub_color"   :"555555",
        "text_item_sel_color"       :"e8a82d",
        "text_item_sel_sub_color"   :"D2B798",
        
        "view_kit_nor_color"        :"FFFFFF",
        "view_kit_sel_color"        :"e8a82d",
        "view_kit_dis_color"        :"D2D2D2",
        
        "view_cus_headBg_color"     :"FFFFFF",
        "view_cus_bg_color"         :"FAF6F1",
        "view_quick_bg_color"       :"FAF6F1",
    },
    "skin_color_mintgreen"     :       {
        
        "navi_bg_color"             :"26e6a7",
        "navi_tint_color"           :"FFFFFF",
        
        "tab_bg_color"              :"FFFFFF",
        "tab_nor_color"             :"7e8c8d",
        "tab_sel_color"             :"26e6a7",
        
        "view_screen_color"         :"EFEFF4",
        "view_bg_color"             :"FFFFFF",
        "view_contentview_color"    :"26e6a7",
        
        "text_titile_color"         :"FFFFFF",
        "text_head_color"           :"2F2F2F",
        
        "text_item_nor_color"       :"2F2F2F",
        "text_item_nor_sub_color"   :"555555",
        "text_item_sel_color"       :"26e6a7",
        "text_item_sel_sub_color"   :"bed9e3",
        
        "view_kit_nor_color"        :"FFFFFF",
        "view_kit_sel_color"        :"26e6a7",
        "view_kit_dis_color"        :"D2D2D2",
        
        "view_cus_headBg_color"     :"FFFFFF",
        "view_cus_bg_color"         :"EEFAF6",
        "view_quick_bg_color"       :"EEFAF6",
        
    },
    
    "skin_color_coffee"     :       {
        "navi_bg_color"             :"8A725F",
        "navi_tint_color"           :"FFFFFF",
        
        "tab_bg_color"              :"FFFFFF",
        "tab_nor_color"             :"7e8c8d",
        "tab_sel_color"             :"8A725F",
        
        "view_screen_color"         :"FAF6F1",
        "view_bg_color"             :"FFFFFF",
        "view_contentview_color"    :"8A725F",
        
        "text_titile_color"         :"FFFFFF",
        "text_head_color"           :"2F2F2F",
        
        "text_item_nor_color"       :"2F2F2F",
        "text_item_nor_sub_color"   :"555555",
        "text_item_sel_color"       :"8A725F",
        "text_item_sel_sub_color"   :"D2B798",
        
        "view_kit_nor_color"        :"FFFFFF",
        "view_kit_sel_color"        :"8A725F",
        "view_kit_dis_color"        :"D2D2D2",
        
        "view_cus_headBg_color"     :"FFFFFF",
        "view_cus_bg_color"         :"FAF6F1",
        "view_quick_bg_color"       :"FAF6F1",
    },
}



